\relax 
\providecommand\hyper@newdestlabel[2]{}
\providecommand\HyperFirstAtBeginDocument{\AtBeginDocument}
\HyperFirstAtBeginDocument{\ifx\hyper@anchor\@undefined
\global\let\oldcontentsline\contentsline
\gdef\contentsline#1#2#3#4{\oldcontentsline{#1}{#2}{#3}}
\global\let\oldnewlabel\newlabel
\gdef\newlabel#1#2{\newlabelxx{#1}#2}
\gdef\newlabelxx#1#2#3#4#5#6{\oldnewlabel{#1}{{#2}{#3}}}
\AtEndDocument{\ifx\hyper@anchor\@undefined
\let\contentsline\oldcontentsline
\let\newlabel\oldnewlabel
\fi}
\fi}
\global\let\hyper@last\relax 
\gdef\HyperFirstAtBeginDocument#1{#1}
\providecommand\HyField@AuxAddToFields[1]{}
\providecommand\HyField@AuxAddToCoFields[2]{}
\select@language{english}
\@writefile{toc}{\select@language{english}}
\@writefile{lof}{\select@language{english}}
\@writefile{lot}{\select@language{english}}
\@writefile{nav}{\headcommand {\slideentry {0}{0}{1}{1/1}{}{0}}}
\@writefile{nav}{\headcommand {\beamer@framepages {1}{1}}}
\newlabel{sec:org4cce318<1>}{{2}{2}{}{Doc-Start}{}}
\@writefile{snm}{\beamer@slide {sec:org4cce318<1>}{2}}
\newlabel{sec:org4cce318}{{2}{2}{}{Doc-Start}{}}
\@writefile{snm}{\beamer@slide {sec:org4cce318}{2}}
\@writefile{nav}{\headcommand {\slideentry {0}{0}{2}{2/2}{}{0}}}
\@writefile{nav}{\headcommand {\beamer@framepages {2}{2}}}
\newlabel{sec:org0649ebe<1>}{{3}{3}{}{Doc-Start}{}}
\@writefile{snm}{\beamer@slide {sec:org0649ebe<1>}{3}}
\newlabel{sec:org0649ebe}{{3}{3}{}{Doc-Start}{}}
\@writefile{snm}{\beamer@slide {sec:org0649ebe}{3}}
\@writefile{nav}{\headcommand {\slideentry {0}{0}{3}{3/3}{}{0}}}
\@writefile{nav}{\headcommand {\beamer@framepages {3}{3}}}
\newlabel{sec:org339316b<1>}{{4}{4}{}{Doc-Start}{}}
\@writefile{snm}{\beamer@slide {sec:org339316b<1>}{4}}
\newlabel{sec:org339316b}{{4}{4}{}{Doc-Start}{}}
\@writefile{snm}{\beamer@slide {sec:org339316b}{4}}
\@writefile{nav}{\headcommand {\slideentry {0}{0}{4}{4/4}{}{0}}}
\@writefile{nav}{\headcommand {\beamer@framepages {4}{4}}}
\newlabel{sec:orgd0bee9f<1>}{{5}{5}{}{Doc-Start}{}}
\@writefile{snm}{\beamer@slide {sec:orgd0bee9f<1>}{5}}
\newlabel{sec:orgd0bee9f}{{5}{5}{}{Doc-Start}{}}
\@writefile{snm}{\beamer@slide {sec:orgd0bee9f}{5}}
\@writefile{nav}{\headcommand {\slideentry {0}{0}{5}{5/5}{}{0}}}
\@writefile{nav}{\headcommand {\beamer@framepages {5}{5}}}
\newlabel{sec:org02d0734<1>}{{6}{6}{}{Doc-Start}{}}
\@writefile{snm}{\beamer@slide {sec:org02d0734<1>}{6}}
\newlabel{sec:org02d0734}{{6}{6}{}{Doc-Start}{}}
\@writefile{snm}{\beamer@slide {sec:org02d0734}{6}}
\@writefile{nav}{\headcommand {\slideentry {0}{0}{6}{6/6}{}{0}}}
\@writefile{nav}{\headcommand {\beamer@framepages {6}{6}}}
\newlabel{sec:org50b2666<1>}{{7}{7}{}{Doc-Start}{}}
\@writefile{snm}{\beamer@slide {sec:org50b2666<1>}{7}}
\newlabel{sec:org50b2666}{{7}{7}{}{Doc-Start}{}}
\@writefile{snm}{\beamer@slide {sec:org50b2666}{7}}
\newlabel{sec:org50b2666<2>}{{7}{8}{}{Doc-Start}{}}
\@writefile{snm}{\beamer@slide {sec:org50b2666<2>}{8}}
\newlabel{sec:org50b2666<3>}{{7}{9}{}{Doc-Start}{}}
\@writefile{snm}{\beamer@slide {sec:org50b2666<3>}{9}}
\newlabel{sec:org50b2666<4>}{{7}{10}{}{Doc-Start}{}}
\@writefile{snm}{\beamer@slide {sec:org50b2666<4>}{10}}
\newlabel{sec:org50b2666<5>}{{7}{11}{}{Doc-Start}{}}
\@writefile{snm}{\beamer@slide {sec:org50b2666<5>}{11}}
\newlabel{sec:org50b2666<6>}{{7}{12}{}{Doc-Start}{}}
\@writefile{snm}{\beamer@slide {sec:org50b2666<6>}{12}}
\newlabel{sec:org50b2666<7>}{{7}{13}{}{Doc-Start}{}}
\@writefile{snm}{\beamer@slide {sec:org50b2666<7>}{13}}
\@writefile{nav}{\headcommand {\slideentry {0}{0}{7}{7/13}{}{0}}}
\@writefile{nav}{\headcommand {\beamer@framepages {7}{13}}}
\newlabel{sec:org5b6edb8<1>}{{8}{14}{}{Doc-Start}{}}
\@writefile{snm}{\beamer@slide {sec:org5b6edb8<1>}{14}}
\newlabel{sec:org5b6edb8}{{8}{14}{}{Doc-Start}{}}
\@writefile{snm}{\beamer@slide {sec:org5b6edb8}{14}}
\newlabel{fig-leuchtstofflampeinduktivitaet}{{1}{14}{}{Doc-Start}{}}
\@writefile{snm}{\beamer@slide {fig-leuchtstofflampeinduktivitaet}{14}}
\newlabel{fig-handyladerkondensator}{{2}{14}{}{Doc-Start}{}}
\@writefile{snm}{\beamer@slide {fig-handyladerkondensator}{14}}
\newlabel{fig-halogenkondensatorlebensdauer}{{3}{14}{}{Doc-Start}{}}
\@writefile{snm}{\beamer@slide {fig-halogenkondensatorlebensdauer}{14}}
\@writefile{nav}{\headcommand {\slideentry {0}{0}{8}{14/14}{}{0}}}
\@writefile{nav}{\headcommand {\beamer@framepages {14}{14}}}
\newlabel{sec:org3969d93<1>}{{9}{15}{}{Doc-Start}{}}
\@writefile{snm}{\beamer@slide {sec:org3969d93<1>}{15}}
\newlabel{sec:org3969d93}{{9}{15}{}{Doc-Start}{}}
\@writefile{snm}{\beamer@slide {sec:org3969d93}{15}}
\newlabel{fig-esbmotorbspimpedanzen}{{4}{15}{}{Doc-Start}{}}
\@writefile{snm}{\beamer@slide {fig-esbmotorbspimpedanzen}{15}}
\newlabel{tab:org6501de7}{{1}{15}{}{Doc-Start}{}}
\@writefile{snm}{\beamer@slide {tab:org6501de7}{15}}
\newlabel{sec:org3969d93<2>}{{9}{16}{}{Doc-Start}{}}
\@writefile{snm}{\beamer@slide {sec:org3969d93<2>}{16}}
\newlabel{sec:org3969d93<3>}{{9}{17}{}{Doc-Start}{}}
\@writefile{snm}{\beamer@slide {sec:org3969d93<3>}{17}}
\newlabel{sec:org3969d93<4>}{{9}{18}{}{Doc-Start}{}}
\@writefile{snm}{\beamer@slide {sec:org3969d93<4>}{18}}
\newlabel{sec:org3969d93<5>}{{9}{19}{}{Doc-Start}{}}
\@writefile{snm}{\beamer@slide {sec:org3969d93<5>}{19}}
\newlabel{sec:org3969d93<6>}{{9}{20}{}{Doc-Start}{}}
\@writefile{snm}{\beamer@slide {sec:org3969d93<6>}{20}}
\newlabel{sec:org3969d93<7>}{{9}{21}{}{Doc-Start}{}}
\@writefile{snm}{\beamer@slide {sec:org3969d93<7>}{21}}
\newlabel{sec:org3969d93<8>}{{9}{22}{}{Doc-Start}{}}
\@writefile{snm}{\beamer@slide {sec:org3969d93<8>}{22}}
\newlabel{sec:org3969d93<9>}{{9}{23}{}{Doc-Start}{}}
\@writefile{snm}{\beamer@slide {sec:org3969d93<9>}{23}}
\newlabel{sec:org3969d93<10>}{{9}{24}{}{Doc-Start}{}}
\@writefile{snm}{\beamer@slide {sec:org3969d93<10>}{24}}
\newlabel{sec:org3969d93<11>}{{9}{25}{}{Doc-Start}{}}
\@writefile{snm}{\beamer@slide {sec:org3969d93<11>}{25}}
\newlabel{sec:org3969d93<12>}{{9}{26}{}{Doc-Start}{}}
\@writefile{snm}{\beamer@slide {sec:org3969d93<12>}{26}}
\newlabel{sec:org3969d93<13>}{{9}{27}{}{Doc-Start}{}}
\@writefile{snm}{\beamer@slide {sec:org3969d93<13>}{27}}
\newlabel{sec:org3969d93<14>}{{9}{28}{}{Doc-Start}{}}
\@writefile{snm}{\beamer@slide {sec:org3969d93<14>}{28}}
\newlabel{sec:org3969d93<15>}{{9}{29}{}{Doc-Start}{}}
\@writefile{snm}{\beamer@slide {sec:org3969d93<15>}{29}}
\newlabel{sec:org3969d93<16>}{{9}{30}{}{Doc-Start}{}}
\@writefile{snm}{\beamer@slide {sec:org3969d93<16>}{30}}
\newlabel{sec:org3969d93<17>}{{9}{31}{}{Doc-Start}{}}
\@writefile{snm}{\beamer@slide {sec:org3969d93<17>}{31}}
\@writefile{nav}{\headcommand {\slideentry {0}{0}{9}{15/31}{}{0}}}
\@writefile{nav}{\headcommand {\beamer@framepages {15}{31}}}
\newlabel{sec:orgff613b3<1>}{{10}{32}{}{Doc-Start}{}}
\@writefile{snm}{\beamer@slide {sec:orgff613b3<1>}{32}}
\newlabel{sec:orgff613b3}{{10}{32}{}{Doc-Start}{}}
\@writefile{snm}{\beamer@slide {sec:orgff613b3}{32}}
\@writefile{snm}{\beamer@slide {eq:org4d22c11}{32}}
\newlabel{eq:org4d22c11}{{1}{32}{}{Doc-Start}{}}
\newlabel{fig-zeigerdiagrammimpedanz}{{5}{32}{}{Doc-Start}{}}
\@writefile{snm}{\beamer@slide {fig-zeigerdiagrammimpedanz}{32}}
\newlabel{tab:orgfa03fd8}{{2}{32}{}{Doc-Start}{}}
\@writefile{snm}{\beamer@slide {tab:orgfa03fd8}{32}}
\newlabel{sec:orgff613b3<2>}{{10}{33}{}{Doc-Start}{}}
\@writefile{snm}{\beamer@slide {sec:orgff613b3<2>}{33}}
\newlabel{sec:orgff613b3<3>}{{10}{34}{}{Doc-Start}{}}
\@writefile{snm}{\beamer@slide {sec:orgff613b3<3>}{34}}
\newlabel{sec:orgff613b3<4>}{{10}{35}{}{Doc-Start}{}}
\@writefile{snm}{\beamer@slide {sec:orgff613b3<4>}{35}}
\newlabel{sec:orgff613b3<5>}{{10}{36}{}{Doc-Start}{}}
\@writefile{snm}{\beamer@slide {sec:orgff613b3<5>}{36}}
\newlabel{sec:orgff613b3<6>}{{10}{37}{}{Doc-Start}{}}
\@writefile{snm}{\beamer@slide {sec:orgff613b3<6>}{37}}
\newlabel{sec:orgff613b3<7>}{{10}{38}{}{Doc-Start}{}}
\@writefile{snm}{\beamer@slide {sec:orgff613b3<7>}{38}}
\newlabel{sec:orgff613b3<8>}{{10}{39}{}{Doc-Start}{}}
\@writefile{snm}{\beamer@slide {sec:orgff613b3<8>}{39}}
\newlabel{sec:orgff613b3<9>}{{10}{40}{}{Doc-Start}{}}
\@writefile{snm}{\beamer@slide {sec:orgff613b3<9>}{40}}
\newlabel{sec:orgff613b3<10>}{{10}{41}{}{Doc-Start}{}}
\@writefile{snm}{\beamer@slide {sec:orgff613b3<10>}{41}}
\newlabel{sec:orgff613b3<11>}{{10}{42}{}{Doc-Start}{}}
\@writefile{snm}{\beamer@slide {sec:orgff613b3<11>}{42}}
\newlabel{sec:orgff613b3<12>}{{10}{43}{}{Doc-Start}{}}
\@writefile{snm}{\beamer@slide {sec:orgff613b3<12>}{43}}
\@writefile{nav}{\headcommand {\slideentry {0}{0}{10}{32/43}{}{0}}}
\@writefile{nav}{\headcommand {\beamer@framepages {32}{43}}}
\newlabel{sec:orgf35045e<1>}{{11}{44}{}{Doc-Start}{}}
\@writefile{snm}{\beamer@slide {sec:orgf35045e<1>}{44}}
\newlabel{sec:orgf35045e}{{11}{44}{}{Doc-Start}{}}
\@writefile{snm}{\beamer@slide {sec:orgf35045e}{44}}
\@writefile{snm}{\beamer@slide {eq:org60109f0}{44}}
\newlabel{eq:org60109f0}{{2}{44}{}{Doc-Start}{}}
\newlabel{fig-zeigerdiagrammadmittanz}{{6}{44}{}{Doc-Start}{}}
\@writefile{snm}{\beamer@slide {fig-zeigerdiagrammadmittanz}{44}}
\newlabel{tab:org0ee42b4}{{3}{44}{}{Doc-Start}{}}
\@writefile{snm}{\beamer@slide {tab:org0ee42b4}{44}}
\newlabel{sec:orgf35045e<2>}{{11}{45}{}{Doc-Start}{}}
\@writefile{snm}{\beamer@slide {sec:orgf35045e<2>}{45}}
\newlabel{sec:orgf35045e<3>}{{11}{46}{}{Doc-Start}{}}
\@writefile{snm}{\beamer@slide {sec:orgf35045e<3>}{46}}
\newlabel{sec:orgf35045e<4>}{{11}{47}{}{Doc-Start}{}}
\@writefile{snm}{\beamer@slide {sec:orgf35045e<4>}{47}}
\newlabel{sec:orgf35045e<5>}{{11}{48}{}{Doc-Start}{}}
\@writefile{snm}{\beamer@slide {sec:orgf35045e<5>}{48}}
\newlabel{sec:orgf35045e<6>}{{11}{49}{}{Doc-Start}{}}
\@writefile{snm}{\beamer@slide {sec:orgf35045e<6>}{49}}
\newlabel{sec:orgf35045e<7>}{{11}{50}{}{Doc-Start}{}}
\@writefile{snm}{\beamer@slide {sec:orgf35045e<7>}{50}}
\newlabel{sec:orgf35045e<8>}{{11}{51}{}{Doc-Start}{}}
\@writefile{snm}{\beamer@slide {sec:orgf35045e<8>}{51}}
\newlabel{sec:orgf35045e<9>}{{11}{52}{}{Doc-Start}{}}
\@writefile{snm}{\beamer@slide {sec:orgf35045e<9>}{52}}
\newlabel{sec:orgf35045e<10>}{{11}{53}{}{Doc-Start}{}}
\@writefile{snm}{\beamer@slide {sec:orgf35045e<10>}{53}}
\newlabel{sec:orgf35045e<11>}{{11}{54}{}{Doc-Start}{}}
\@writefile{snm}{\beamer@slide {sec:orgf35045e<11>}{54}}
\newlabel{sec:orgf35045e<12>}{{11}{55}{}{Doc-Start}{}}
\@writefile{snm}{\beamer@slide {sec:orgf35045e<12>}{55}}
\@writefile{nav}{\headcommand {\slideentry {0}{0}{11}{44/55}{}{0}}}
\@writefile{nav}{\headcommand {\beamer@framepages {44}{55}}}
