% $ biblatex auxiliary file $
% $ biblatex bbl format version 2.8 $
% Do not modify the above lines!
%
% This is an auxiliary file used by the 'biblatex' package.
% This file may safely be deleted. It will be recreated by
% biber as required.
%
\begingroup
\makeatletter
\@ifundefined{ver@biblatex.sty}
  {\@latex@error
     {Missing 'biblatex' package}
     {The bibliography requires the 'biblatex' package.}
      \aftergroup\endinput}
  {}
\endgroup


\refsection{0}
  \sortlist[entry]{anyt/global/}
    \entry{bumiller_fachkunde_2018}{book}{}
      \name{author}{11}{}{%
        {{hash=7e72584090608419b1657adaa6e29171}{%
           family={Bumiller},
           familyi={B\bibinitperiod},
           given={Horst},
           giveni={H\bibinitperiod}}}%
        {{hash=815d5914446b4fb34822f0628fb903bb}{%
           family={Burgmaier},
           familyi={B\bibinitperiod},
           given={Monika},
           giveni={M\bibinitperiod}}}%
        {{hash=3980b5c918c20a9841f5ba101c1e0066}{%
           family={Eichler},
           familyi={E\bibinitperiod},
           given={Walter},
           giveni={W\bibinitperiod}}}%
        {{hash=bb3c37a4f085c8c3bc99add3e185d32c}{%
           family={Feustel},
           familyi={F\bibinitperiod},
           given={Bernd},
           giveni={B\bibinitperiod}}}%
        {{hash=403cc23145673be9677e3f64592dac74}{%
           family={Käppel},
           familyi={K\bibinitperiod},
           given={Thomas},
           giveni={T\bibinitperiod}}}%
        {{hash=618353871fc0a519dc59fdc30dff0908}{%
           family={Klee},
           familyi={K\bibinitperiod},
           given={Werner},
           giveni={W\bibinitperiod}}}%
        {{hash=537e419af34355617e8f127e679104df}{%
           family={Manderla},
           familyi={M\bibinitperiod},
           given={Jürgen},
           giveni={J\bibinitperiod}}}%
        {{hash=16d3251df22e87bba32657e7db88446e}{%
           family={Reichmann},
           familyi={R\bibinitperiod},
           given={Olaf},
           giveni={O\bibinitperiod}}}%
        {{hash=7508513950d361ab18cebd04ec59fa17}{%
           family={Schwarz},
           familyi={S\bibinitperiod},
           given={Jürgen},
           giveni={J\bibinitperiod}}}%
        {{hash=513c116402ff983c4924901a4a62b61c}{%
           family={Tkotz},
           familyi={T\bibinitperiod},
           given={Klaus},
           giveni={K\bibinitperiod}}}%
        {{hash=091e664e98b321c061c2d68c44213fd2}{%
           family={Winter},
           familyi={W\bibinitperiod},
           given={Ulrich},
           giveni={U\bibinitperiod}}}%
      }
      \list{location}{1}{%
        {Haan-Gruiten}%
      }
      \list{publisher}{1}{%
        {Verlag Europa-Lehrmittel, Nourney, Vollmer {GmbH} \& Co. {KG}}%
      }
      \strng{namehash}{3a9fcbf72898ac92ea08248ca5943e80}
      \strng{fullhash}{947f59c6e9777e928f80624ddebbb84f}
      \strng{authornamehash}{3a9fcbf72898ac92ea08248ca5943e80}
      \strng{authorfullhash}{947f59c6e9777e928f80624ddebbb84f}
      \field{labelalpha}{Bum+18}
      \field{sortinit}{B}
      \field{sortinithash}{5f6fa000f686ee5b41be67ba6ff7962d}
      \field{labelnamesource}{author}
      \field{labeltitlesource}{title}
      \field{edition}{31. überarbeitete und erweiterte Auflage}
      \field{isbn}{978-3-8085-3479-3}
      \field{note}{{OCLC}: 1024134880}
      \field{pagetotal}{688}
      \field{series}{Europa Fachbuchreihe für elektronische Berufe}
      \field{title}{Fachkunde Elektrotechnik}
      \field{year}{2018}
      \field{dateera}{ce}
    \endentry
    \entry{flegel_elektrotechnik_2016}{book}{}
      \name{author}{5}{}{%
        {{hash=846631708b29a3cdd067b586e0acf2a6}{%
           family={Flegel},
           familyi={F\bibinitperiod},
           given={Georg},
           giveni={G\bibinitperiod}}}%
        {{hash=3694ae1334ebcfad372d1a944ce0e219}{%
           family={Birnstiel},
           familyi={B\bibinitperiod},
           given={Karl},
           giveni={K\bibinitperiod}}}%
        {{hash=f371fddacf518e620b525397c05f8476}{%
           family={Nerreter},
           familyi={N\bibinitperiod},
           given={Wolfgang},
           giveni={W\bibinitperiod}}}%
        {{hash=525d22cbfba9e0d117aa5abfeab0b025}{%
           family={Borcherding},
           familyi={B\bibinitperiod},
           given={Holger},
           giveni={H\bibinitperiod}}}%
        {{hash=0b801b927c4f434262ba3b57c18f5591}{%
           family={Meier},
           familyi={M\bibinitperiod},
           given={Uwe},
           giveni={U\bibinitperiod}}}%
      }
      \list{location}{1}{%
        {München}%
      }
      \list{publisher}{1}{%
        {Hanser}%
      }
      \strng{namehash}{16a323ab0a26226f401861bdd6e275f3}
      \strng{fullhash}{85974e136614208df33454c4a1d6d3bd}
      \strng{authornamehash}{16a323ab0a26226f401861bdd6e275f3}
      \strng{authorfullhash}{85974e136614208df33454c4a1d6d3bd}
      \field{labelalpha}{Fle+16}
      \field{sortinit}{F}
      \field{sortinithash}{276475738cc058478c1677046f857703}
      \field{labelnamesource}{author}
      \field{labeltitlesource}{title}
      \field{edition}{10., neu bearbeitete Auflage}
      \field{isbn}{978-3-446-44496-6 978-3-446-44773-8}
      \field{note}{{OCLC}: 932644738}
      \field{pagetotal}{351}
      \field{title}{Elektrotechnik für Maschinenbau und Mechatronik}
      \field{year}{2016}
      \field{dateera}{ce}
      \verb{file}
      \verb Table of Contents PDF:/home/franzi/Zotero/storage/SKAN4JQ6/Flegel et al. - 2016 - Elektrotechnik für Maschinenbau und Mechatronik.pdf:application/pdf
      \endverb
    \endentry
  \endsortlist
\endrefsection
\endinput

