% $ biblatex auxiliary file $
% $ biblatex bbl format version 2.8 $
% Do not modify the above lines!
%
% This is an auxiliary file used by the 'biblatex' package.
% This file may safely be deleted. It will be recreated by
% biber as required.
%
\begingroup
\makeatletter
\@ifundefined{ver@biblatex.sty}
  {\@latex@error
     {Missing 'biblatex' package}
     {The bibliography requires the 'biblatex' package.}
      \aftergroup\endinput}
  {}
\endgroup


\refsection{0}
  \sortlist[entry]{anyt/global/}
    \entry{noauthor_e-reihe_2020}{inreference}{}
      \field{labelalpha}{20}
      \field{sortinit}{2}
      \field{sortinithash}{0aa614ace9f3a40ef5a67e7f7a184048}
      \field{labeltitlesource}{title}
      \field{abstract}{Eine E-Reihe ist eine genormte Folge von Eigenschaftswerten elektrischer Bauelemente. Die Werte der E-Reihen ergeben sich aus der Renard-Serie. Im Handel erhältliche Widerstände, Kondensatoren, Spulen oder Zener-Dioden haben meist nominelle Werte aus einer E-Reihe. Eine E-Reihe deckt dabei den Wertebereich so ab, dass das Verhältnis aufeinanderfolgender Werte möglichst gleich groß ist. Außerdem sind die Werte so gewählt, dass sich die Ziffernfolgen in jeder Dekade wiederholen. In der Norm {DIN} {IEC} 60063 sind sieben E-Reihen definiert: E3, E6, E12, E24, E48, E96 und E192. Dabei gibt die Zahl hinter dem E an, wie viele Werte die Reihe innerhalb einer Dekade enthält. Die Norm trat im Dezember 1985 unter dem Titel Vorzugsreihen für die Nennwerte von Widerständen und Kondensatoren in Kraft. Sie stimmt inhaltlich mit der internationalen Norm {IEC} 60063 von 1963 überein. Kabelquerschnitte (nach {IEC} 60228) und Sicherungswerte (nach {IEC} 60229) basieren auf Renard-Serien mit einer anderen Anzahl von Werten in einer Dekade.}
      \field{booktitle}{Wikipedia}
      \field{day}{16}
      \field{langid}{german}
      \field{month}{2}
      \field{note}{Page Version {ID}: 196855802}
      \field{title}{E-Reihe}
      \field{urlday}{12}
      \field{urlmonth}{6}
      \field{urlyear}{2020}
      \field{year}{2020}
      \field{dateera}{ce}
      \field{urldateera}{ce}
      \verb{file}
      \verb Snapshot:/home/franzi/Zotero/storage/VHHQVWQ7/index.html:text/html
      \endverb
      \verb{url}
      \verb https://de.wikipedia.org/w/index.php?title=E-Reihe&oldid=196855802
      \endverb
    \endentry
    \entry{manfred_albach_abschlussbericht_2012}{report}{}
      \name{author}{1}{}{%
        {{hash=d4a08720bf3913a768d830f2c0fde0a5}{%
           family={{Manfred Albach}},
           familyi={M\bibinitperiod}}}%
      }
      \list{institution}{1}{%
        {Lehrstuhl für Elektromagnetische Felder, Friedrich-Alexander-Universität Erlangen-Nürnberg}%
      }
      \list{location}{1}{%
        {Nürnberg}%
      }
      \strng{namehash}{d4a08720bf3913a768d830f2c0fde0a5}
      \strng{fullhash}{d4a08720bf3913a768d830f2c0fde0a5}
      \strng{authornamehash}{d4a08720bf3913a768d830f2c0fde0a5}
      \strng{authorfullhash}{d4a08720bf3913a768d830f2c0fde0a5}
      \field{labelalpha}{Man12}
      \field{sortinit}{M}
      \field{sortinithash}{c26a05ef03e4429073ed5c825140fac3}
      \field{labelnamesource}{author}
      \field{labeltitlesource}{title}
      \field{day}{23}
      \field{month}{2}
      \field{title}{Abschlussbericht zum Verbundvorhaben Charakterisierung und Optimierung von Litze in Drosseln und Transformatoren zur besseren Ausnutzung der Energie}
      \field{year}{2012}
      \field{dateera}{ce}
      \verb{file}
      \verb TIBKAT_721273564.pdf:/home/franzi/Zotero/storage/RPGXTT8S/TIBKAT_721273564.pdf:application/pdf
      \endverb
    \endentry
  \endsortlist
\endrefsection
\endinput

